<?xml version="1.0" encoding="utf-8"?>
<!-- Generator: Adobe Illustrator 21.1.0, SVG Export Plug-In . SVG Version: 6.00 Build 0)  -->
<svg version="1.1" id="Layer_1" xmlns="http://www.w3.org/2000/svg" xmlns:xlink="http://www.w3.org/1999/xlink" x="0px" y="0px"
	 viewBox="0 0 172.1 142.7" style="enable-background:new 0 0 172.1 142.7;" xml:space="preserve">
<style type="text/css">
	.st0{fill:#D9EAFC;}
	.st1{fill:#2089E0;}
	.st2{fill:#FFFFFF;}
	.st3{fill:#E6EFF4;}
	.st4{fill:#F2F2F2;}
	.st5{fill:#EFEFEF;}
	.st6{fill:#AFAFAF;}
</style>
<g>
	<g>
		<g>
			<path class="st0" d="M58.2,28.2c-5.5,0-6.7-1.3-6.7-1.3l-5.2-4.2c-3.1-3.8-9-4-9-4H9.3L9,18.3V5c0-2.2,1.8-4,4.1-4H159
				c2.3,0,4.1,1.8,4.1,4v14.8v8.2L58.2,28.2z"/>
		</g>
		<g>
			<path class="st1" d="M164.1,28.1h-2V5c0-1.7-1.4-3-3.1-3H13.1C11.4,2,10,3.4,10,5v13.2H8V5c0-2.8,2.3-5,5.1-5H159
				c2.8,0,5.1,2.3,5.1,5V28.1z"/>
		</g>
		<g>
			<path class="st2" d="M171.1,32.5c0-1.3-0.5-2.5-1.3-3.4c-0.8-0.9-2-1.4-3.3-1.4h-24.3c-2.2,0-4.6,0-7.1,0c-36,0-80.2,0-80.2,0
				c-3.1,0-5.1-1.4-5.1-1.4l-7.6-6.4c0,0-1.9-1.5-5.3-1.5H5.6c-1.3,0-2.4,0.5-3.3,1.4C1.5,20.8,1,22,1,23.3l16.2,99.9
				c0.5,3,2.1,4.7,4.6,4.7h125.8c2,0,3.9-1.6,4.5-3.9L171.1,32.5z"/>
		</g>
		<g>
			<path class="st0" d="M37,27.6c0.1,0,0.2,0,0.2,0l6.8,5.7l0.3,0.3l0.4,0.2c1,0.7,4.7,2.9,10.2,2.9h80.2h7.1H161l-17,82.2H25.6
				L10.8,27.6H37 M37,18.6H5.6c-1.3,0-2.4,0.5-3.3,1.4C1.5,20.8,1,22,1,23.3l16.2,99.9c0,2.6,2.1,4.7,4.6,4.7h125.8
				c2,0,3.6-1.3,4.3-3.1l0.1,0.1l19.1-92.5c0-1.3-0.5-2.5-1.3-3.4c-0.8-0.9-2-1.4-3.3-1.4h-24.3c-2.2,0-4.6,0-7.1,0
				c-36,0-80.2,0-80.2,0c-3.1,0-5.1-1.4-5.1-1.4l-7.6-6.4C42.2,20.1,40.3,18.6,37,18.6L37,18.6z"/>
		</g>
		<g>
			<path class="st1" d="M147.6,129H21.8c-3.1,0-5.6-2.5-5.6-5.7L0,23.4v-0.1c0-1.5,0.6-3,1.6-4.1c1.1-1.1,2.5-1.7,4-1.7H37
				c3.7,0,5.8,1.6,5.9,1.7l7.6,6.4l0,0c0,0,1.8,1.1,4.5,1.1h111.6c1.5,0,2.9,0.6,4,1.7c1.1,1.1,1.6,2.5,1.6,4.1l0,0.2l-18.9,91.9
				l-0.8,1.7C151.3,128,149.5,129,147.6,129z M2,23.3l16.2,99.9v0.1c0,2.1,1.6,3.7,3.6,3.7h125.8c1.5,0,2.8-1,3.4-2.4l0.3-0.8
				l18.8-91.4c0-1-0.4-1.9-1.1-2.6c-0.7-0.7-1.6-1.1-2.5-1.1H54.9c-3.4,0-5.6-1.5-5.7-1.5l-7.6-6.4l0,0c0,0-1.7-1.3-4.6-1.3H5.6
				c-1,0-1.9,0.4-2.5,1.1C2.4,21.4,2,22.3,2,23.3z"/>
		</g>
	</g>
	<g>
		<path class="st3" d="M152.4,129.7c0,6.1-29.4,13-67,13s-68-6.9-68-13"/>
	</g>
</g>
</svg>
